[
  {
    "id": "1",
    "subject": "d1",
    "body": "Today has been a massive day Bikash Chandra Karmokar! And we have only the last FIVE seats left for the FasterGerman courses right now! (we launched the course with fresh seats this morning with the discount) First of all, we are overwhelmed by the excitement the students had shown since the day we launched FasterGerman! It made me believe that high quality (built with a native German), affordable and fast German courses are need of the hour for the students who want to learn the language. And the best part? This has happened because we have produced results that too at a price point no 'so called language school' can even imagine! And this is what BiG Academy all about, Bikash Chandra Karmokar.",
    "spamProbability": "undecided"
  },
  {
    "id": "2",
    "subject": "d2",
    "body": "Today has been a wonderful day Minar Chaudhary! And we have only the last SIX seats left for the FasterGerman courses right now! (we launched the course with fresh seats this morning with the discount) First of all, we are overwhelmed by the excitement the students had shown since the day we launched FasterGerman! It made me believe that high quality (built with a native German), affordable and fast German courses are need of the hour for the students who want to learn the language. And the best part? This has happened because we have produced results that too at a price point no 'so called language school' can even imagine! And this is what BiG Academy all about, Minar Chaudhary.",
    "spamProbability": "undecided"
  },
  {
    "id": "3",
    "subject": "d3",
    "body": "Today has been a awesome day Richmond Alake! And we have only the last TEN seats left for the FasterGerman courses right now! (we launched the course with fresh seats this morning with the discount) First of all, we are overwhelmed by the excitement the students had shown since the day we launched FasterGerman! It made me believe that high quality (built with a native German), affordable and fast German courses are need of the hour for the students who want to learn the language. And the best part? This has happened because we have produced results that too at a price point no 'so called language school' can even imagine! And this is what BiG Academy all about, Richmond Alake.",
    "spamProbability": "undecided"
  }
]
